{
    "page":1,
    "results":[
        {"_id":1,
            "payer":"naveen",
            "amount":500,
            "mode":"cash",
            "payed_on":"10 Aug 22",
            "for":1
        }
        
    ],
       
    "total_pages":10,
    "total_results":100
}